%YAML 1.1
%TAG !u! tag:unity3d.com,2011:
--- !u!47 &1
QualitySettings:
  m_ObjectHideFlags: 0
  serializedVersion: 5
  m_CurrentQuality: 2
  m_QualitySettings:
  - serializedVersion: 2
    name: Fastest
    pixelLightCount: 0
    shadows: 0
    shadowResolution: 0
    shadowProjection: 1
    shadowCascades: 1
    shadowDistance: 15
    blendWeights: 1
    textureQuality: 0
    anisotropicTextures: 1
    antiAliasing: 0
    softParticles: 0
    softVegetation: 0
    vSyncCount: 1
    lodBias: .300000012
    maximumLODLevel: 0
    particleRaycastBudget: 4
    excludedTargetPlatforms:
    - BlackBerry
    - Windows Store Apps
    - WP8
  - serializedVersion: 2
    name: Good
    pixelLightCount: 2
    shadows: 2
    shadowResolution: 1
    shadowProjection: 0
    shadowCascades: 2
    shadowDistance: 40
    blendWeights: 2
    textureQuality: 0
    anisotropicTextures: 1
    antiAliasing: 0
    softParticles: 0
    softVegetation: 1
    vSyncCount: 1
    lodBias: 1
    maximumLODLevel: 0
    particleRaycastBudget: 256
    excludedTargetPlatforms:
    - BlackBerry
    - Windows Store Apps
    - WP8
  - serializedVersion: 2
    name: Beautiful
    pixelLightCount: 3
    shadows: 2
    shadowResolution: 2
    shadowProjection: 1
    shadowCascades: 2
    shadowDistance: 70
    blendWeights: 4
    textureQuality: 0
    anisotropicTextures: 2
    antiAliasing: 0
    softParticles: 1
    softVegetation: 1
    vSyncCount: 1
    lodBias: 1.5
    maximumLODLevel: 0
    particleRaycastBudget: 1024
    excludedTargetPlatforms:
    - BlackBerry
    - Windows Store Apps
    - WP8
  m_PerPlatformDefaultQuality: {}
